[
	{
		"name": "Talk To Bartender",
		"type": "dialoge"
	},
	{
		"name": "Attack from Elder peak to Galaderion",
		"type": "combat",
		"isRepetable": false,
		"enemies": {
			"Goblin": 1
		}
	},
	{
		"name": "Attack in town",
		"type": "combat",
		"isRepetable": false,
		"enemies": {
			"Goblin": 1
		}
	}
]